<svg width="12" height="12" viewBox="0 0 12 12" fill="none" xmlns="http://www.w3.org/2000/svg">
<path d="M9.57239 0.395508H2.44517C1.31803 0.395508 0.404297 1.30924 0.404297 2.43638V9.5636C0.404297 10.6907 1.31803 11.6045 2.44517 11.6045H9.57239C10.6995 11.6045 11.6133 10.6907 11.6133 9.5636V2.43638C11.6133 1.30924 10.6995 0.395508 9.57239 0.395508Z" stroke="#CCCCCC" stroke-miterlimit="10"/>
</svg>
