<svg width="779" height="19" viewBox="0 0 779 19" fill="none" xmlns="http://www.w3.org/2000/svg">
<path d="M14.0007 18.0215H10.5117V14.5325H14.0007V18.0215Z" fill="#B07248" fill-opacity="0.6"/>
<path d="M23.1575 17.9922H19.7285V14.5632H23.1575V17.9922Z" fill="#B07248" fill-opacity="0.6"/>
<path d="M32.3153 17.9609H28.9473V14.5929H32.3153V17.9609Z" fill="#B07248" fill-opacity="0.6"/>
<path d="M41.4711 17.9297H38.1641V14.6227H41.4711V17.9297Z" fill="#B07248" fill-opacity="0.6"/>
<path d="M50.6269 17.9004H47.3809V14.6544H50.6269V17.9004Z" fill="#B07248" fill-opacity="0.6"/>
<path d="M59.7856 17.8691H56.5996V14.6831H59.7856V17.8691Z" fill="#B07248" fill-opacity="0.6"/>
<path d="M68.9414 17.8398H65.8164V14.7148H68.9414V17.8398Z" fill="#B07248" fill-opacity="0.6"/>
<path d="M78.0992 17.8086H75.0352V14.7446H78.0992V17.8086Z" fill="#B07248" fill-opacity="0.6"/>
<path d="M87.256 17.7773H84.252V14.7733H87.256V17.7773Z" fill="#B07248" fill-opacity="0.6"/>
<path d="M96.4118 17.748H93.4688V14.805H96.4118V17.748Z" fill="#B07248" fill-opacity="0.6"/>
<path d="M105.57 17.7188H102.688V14.8368H105.57V17.7188Z" fill="#B07248" fill-opacity="0.6"/>
<path d="M114.725 17.6875H111.904V14.8665H114.725V17.6875Z" fill="#B07248" fill-opacity="0.6"/>
<path d="M123.884 17.6562H121.123V14.8952H123.884V17.6562Z" fill="#B07248" fill-opacity="0.6"/>
<path d="M133.04 17.6289H130.34V14.9289H133.04V17.6289Z" fill="#B07248" fill-opacity="0.6"/>
<path d="M142.198 17.5977H139.559V14.9587H142.198V17.5977Z" fill="#B07248" fill-opacity="0.6"/>
<path d="M151.354 17.5664H148.775V14.9874H151.354V17.5664Z" fill="#B07248" fill-opacity="0.6"/>
<path d="M160.51 17.5352H157.992V15.0172H160.51V17.5352Z" fill="#B07248" fill-opacity="0.6"/>
<path d="M169.668 17.5059H167.211V15.0489H169.668V17.5059Z" fill="#B07248" fill-opacity="0.6"/>
<path d="M178.824 17.4766H176.428V15.0806H178.824V17.4766Z" fill="#B07248" fill-opacity="0.6"/>
<path d="M187.982 17.4453H185.646V15.1093H187.982V17.4453Z" fill="#B07248" fill-opacity="0.6"/>
<path d="M8.74486 11.043H5.25586V7.55397H8.74486V11.043Z" fill="#B07248" fill-opacity="0.6"/>
<path d="M17.9036 11.0117H14.4746V7.58272H17.9036V11.0117Z" fill="#B07248" fill-opacity="0.6"/>
<path d="M27.0594 10.9824H23.6914V7.61442H27.0594V10.9824Z" fill="#B07248" fill-opacity="0.6"/>
<path d="M36.2152 10.9512H32.9082V7.64417H36.2152V10.9512Z" fill="#B07248" fill-opacity="0.6"/>
<path d="M45.373 10.9219H42.127V7.67587H45.373V10.9219Z" fill="#B07248" fill-opacity="0.6"/>
<path d="M54.5298 10.8906H51.3438V7.70463H54.5298V10.8906Z" fill="#B07248" fill-opacity="0.6"/>
<path d="M63.6875 10.8594H60.5625V7.73438H63.6875V10.8594Z" fill="#B07248" fill-opacity="0.6"/>
<path d="M72.8433 10.8301H69.7793V7.76608H72.8433V10.8301Z" fill="#B07248" fill-opacity="0.6"/>
<path d="M82.0001 10.8008H78.9961V7.79678H82.0001V10.8008Z" fill="#B07248" fill-opacity="0.6"/>
<path d="M91.1578 10.7695H88.2148V7.82653H91.1578V10.7695Z" fill="#B07248" fill-opacity="0.6"/>
<path d="M100.314 10.7383H97.4316V7.85628H100.314V10.7383Z" fill="#B07248" fill-opacity="0.6"/>
<path d="M109.471 10.709H106.65V7.88799H109.471V10.709Z" fill="#B07248" fill-opacity="0.6"/>
<path d="M118.628 10.6777H115.867V7.91673H118.628V10.6777Z" fill="#B07248" fill-opacity="0.6"/>
<path d="M127.784 10.6484H125.084V7.94844H127.784V10.6484Z" fill="#B07248" fill-opacity="0.6"/>
<path d="M136.942 10.6172H134.303V7.97819H136.942V10.6172Z" fill="#B07248" fill-opacity="0.6"/>
<path d="M146.099 10.5859H143.52V8.00694H146.099V10.5859Z" fill="#B07248" fill-opacity="0.6"/>
<path d="M155.256 10.5566H152.738V8.03864H155.256V10.5566Z" fill="#B07248" fill-opacity="0.6"/>
<path d="M164.412 10.5273H161.955V8.07034H164.412V10.5273Z" fill="#B07248" fill-opacity="0.6"/>
<path d="M173.568 10.4961H171.172V8.10009H173.568V10.4961Z" fill="#B07248" fill-opacity="0.6"/>
<path d="M182.727 10.4648H180.391V8.12884H182.727V10.4648Z" fill="#B07248" fill-opacity="0.6"/>
<path d="M3.489 4.06445H0V0.575455H3.489V4.06445Z" fill="#B07248" fill-opacity="0.6"/>
<path d="M12.6477 4.0332H9.21875V0.604202H12.6477V4.0332Z" fill="#B07248" fill-opacity="0.6"/>
<path d="M21.8035 4.00391H18.4355V0.635906H21.8035V4.00391Z" fill="#B07248" fill-opacity="0.6"/>
<path d="M30.9593 3.97266H27.6523V0.665657H30.9593V3.97266Z" fill="#B07248" fill-opacity="0.6"/>
<path d="M40.1151 3.94141H36.8691V0.695406H40.1151V3.94141Z" fill="#B07248" fill-opacity="0.6"/>
<path d="M49.2739 3.91211H46.0879V0.726109H49.2739V3.91211Z" fill="#B07248" fill-opacity="0.6"/>
<path d="M58.4316 3.88281H55.3066V0.757812H58.4316V3.88281Z" fill="#B07248" fill-opacity="0.6"/>
<path d="M67.5874 3.85156H64.5234V0.787563H67.5874V3.85156Z" fill="#B07248" fill-opacity="0.6"/>
<path d="M76.7442 3.82031H73.7402V0.816313H76.7442V3.82031Z" fill="#B07248" fill-opacity="0.6"/>
<path d="M85.9 3.79102H82.957V0.848015H85.9V3.79102Z" fill="#B07248" fill-opacity="0.6"/>
<path d="M95.0578 3.76172H92.1758V0.879719H95.0578V3.76172Z" fill="#B07248" fill-opacity="0.6"/>
<path d="M104.216 3.73047H101.395V0.90947H104.216V3.73047Z" fill="#B07248" fill-opacity="0.6"/>
<path d="M113.372 3.69922H110.611V0.938217H113.372V3.69922Z" fill="#B07248" fill-opacity="0.6"/>
<path d="M122.528 3.66992H119.828V0.969921H122.528V3.66992Z" fill="#B07248" fill-opacity="0.6"/>
<path d="M131.686 3.64062H129.047V1.00163H131.686V3.64062Z" fill="#B07248" fill-opacity="0.6"/>
<path d="M140.843 3.60938H138.264V1.03037H140.843V3.60938Z" fill="#B07248" fill-opacity="0.6"/>
<path d="M150 3.57812H147.482V1.06013H150V3.57812Z" fill="#B07248" fill-opacity="0.6"/>
<path d="M159.156 3.54883H156.699V1.09183H159.156V3.54883Z" fill="#B07248" fill-opacity="0.6"/>
<path d="M168.314 3.51758H165.918V1.12158H168.314V3.51758Z" fill="#B07248" fill-opacity="0.6"/>
<path d="M177.471 3.48828H175.135V1.15228H177.471V3.48828Z" fill="#B07248" fill-opacity="0.6"/>
<path d="M764.687 18.0215H768.176V14.5325H764.687V18.0215Z" fill="#B07248" fill-opacity="0.6"/>
<path d="M755.53 17.9922H758.959V14.5632H755.53V17.9922Z" fill="#B07248" fill-opacity="0.6"/>
<path d="M746.372 17.9609H749.74V14.5929H746.372V17.9609Z" fill="#B07248" fill-opacity="0.6"/>
<path d="M737.216 17.9297H740.523V14.6227H737.216V17.9297Z" fill="#B07248" fill-opacity="0.6"/>
<path d="M728.061 17.9004H731.307V14.6544H728.061V17.9004Z" fill="#B07248" fill-opacity="0.6"/>
<path d="M718.902 17.8691H722.088V14.6831H718.902V17.8691Z" fill="#B07248" fill-opacity="0.6"/>
<path d="M709.746 17.8398H712.871V14.7148H709.746V17.8398Z" fill="#B07248" fill-opacity="0.6"/>
<path d="M700.588 17.8086H703.652V14.7446H700.588V17.8086Z" fill="#B07248" fill-opacity="0.6"/>
<path d="M691.432 17.7793H694.436V14.7753H691.432V17.7793Z" fill="#B07248" fill-opacity="0.6"/>
<path d="M682.276 17.748H685.219V14.805H682.276V17.748Z" fill="#B07248" fill-opacity="0.6"/>
<path d="M673.118 17.7188H676V14.8368H673.118V17.7188Z" fill="#B07248" fill-opacity="0.6"/>
<path d="M663.962 17.6875H666.783V14.8665H663.962V17.6875Z" fill="#B07248" fill-opacity="0.6"/>
<path d="M654.803 17.6582H657.564V14.8972H654.803V17.6582Z" fill="#B07248" fill-opacity="0.6"/>
<path d="M645.648 17.627H648.348V14.927H645.648V17.627Z" fill="#B07248" fill-opacity="0.6"/>
<path d="M636.49 17.5957H639.129V14.9567H636.49V17.5957Z" fill="#B07248" fill-opacity="0.6"/>
<path d="M627.333 17.5664H629.912V14.9874H627.333V17.5664Z" fill="#B07248" fill-opacity="0.6"/>
<path d="M618.177 17.5371H620.695V15.0191H618.177V17.5371Z" fill="#B07248" fill-opacity="0.6"/>
<path d="M609.02 17.5059H611.477V15.0489H609.02V17.5059Z" fill="#B07248" fill-opacity="0.6"/>
<path d="M599.864 17.4746H602.26V15.0786H599.864V17.4746Z" fill="#B07248" fill-opacity="0.6"/>
<path d="M590.705 17.4453H593.041V15.1093H590.705V17.4453Z" fill="#B07248" fill-opacity="0.6"/>
<path d="M769.943 11.043H773.432V7.55397H769.943V11.043Z" fill="#B07248" fill-opacity="0.6"/>
<path d="M760.784 11.0117H764.213V7.58272H760.784V11.0117Z" fill="#B07248" fill-opacity="0.6"/>
<path d="M751.628 10.9824H754.996V7.61442H751.628V10.9824Z" fill="#B07248" fill-opacity="0.6"/>
<path d="M742.472 10.9512H745.779V7.64417H742.472V10.9512Z" fill="#B07248" fill-opacity="0.6"/>
<path d="M733.315 10.9219H736.561V7.67587H733.315V10.9219Z" fill="#B07248" fill-opacity="0.6"/>
<path d="M724.158 10.8906H727.344V7.70463H724.158V10.8906Z" fill="#B07248" fill-opacity="0.6"/>
<path d="M715 10.8594H718.125V7.73438H715V10.8594Z" fill="#B07248" fill-opacity="0.6"/>
<path d="M705.844 10.8301H708.908V7.76608H705.844V10.8301Z" fill="#B07248" fill-opacity="0.6"/>
<path d="M696.687 10.8008H699.691V7.79678H696.687V10.8008Z" fill="#B07248" fill-opacity="0.6"/>
<path d="M687.53 10.7695H690.473V7.82653H687.53V10.7695Z" fill="#B07248" fill-opacity="0.6"/>
<path d="M678.374 10.7383H681.256V7.85628H678.374V10.7383Z" fill="#B07248" fill-opacity="0.6"/>
<path d="M669.216 10.709H672.037V7.88799H669.216V10.709Z" fill="#B07248" fill-opacity="0.6"/>
<path d="M660.059 10.6777H662.82V7.91673H660.059V10.6777Z" fill="#B07248" fill-opacity="0.6"/>
<path d="M650.904 10.6484H653.604V7.94844H650.904V10.6484Z" fill="#B07248" fill-opacity="0.6"/>
<path d="M641.746 10.6172H644.385V7.97819H641.746V10.6172Z" fill="#B07248" fill-opacity="0.6"/>
<path d="M632.589 10.5879H635.168V8.00889H632.589V10.5879Z" fill="#B07248" fill-opacity="0.6"/>
<path d="M623.431 10.5566H625.949V8.03864H623.431V10.5566Z" fill="#B07248" fill-opacity="0.6"/>
<path d="M614.275 10.5254H616.732V8.06839H614.275V10.5254Z" fill="#B07248" fill-opacity="0.6"/>
<path d="M605.12 10.4961H607.516V8.10009H605.12V10.4961Z" fill="#B07248" fill-opacity="0.6"/>
<path d="M595.961 10.4668H598.297V8.1308H595.961V10.4668Z" fill="#B07248" fill-opacity="0.6"/>
<path d="M775.198 4.06445H778.688V0.575455H775.198V4.06445Z" fill="#B07248" fill-opacity="0.6"/>
<path d="M766.04 4.0332H769.469V0.604202H766.04V4.0332Z" fill="#B07248" fill-opacity="0.6"/>
<path d="M756.884 4.00391H760.252V0.635906H756.884V4.00391Z" fill="#B07248" fill-opacity="0.6"/>
<path d="M747.728 3.97266H751.035V0.665657H747.728V3.97266Z" fill="#B07248" fill-opacity="0.6"/>
<path d="M738.572 3.94336H741.818V0.697359H738.572V3.94336Z" fill="#B07248" fill-opacity="0.6"/>
<path d="M729.414 3.91211H732.6V0.726109H729.414V3.91211Z" fill="#B07248" fill-opacity="0.6"/>
<path d="M720.256 3.88281H723.381V0.757812H720.256V3.88281Z" fill="#B07248" fill-opacity="0.6"/>
<path d="M711.1 3.85156H714.164V0.787563H711.1V3.85156Z" fill="#B07248" fill-opacity="0.6"/>
<path d="M701.943 3.82227H704.947V0.818266H701.943V3.82227Z" fill="#B07248" fill-opacity="0.6"/>
<path d="M692.787 3.79102H695.73V0.848015H692.787V3.79102Z" fill="#B07248" fill-opacity="0.6"/>
<path d="M683.63 3.75977H686.512V0.877766H683.63V3.75977Z" fill="#B07248" fill-opacity="0.6"/>
<path d="M674.472 3.73047H677.293V0.90947H674.472V3.73047Z" fill="#B07248" fill-opacity="0.6"/>
<path d="M665.315 3.70117H668.076V0.94017H665.315V3.70117Z" fill="#B07248" fill-opacity="0.6"/>
<path d="M656.159 3.66992H658.859V0.969921H656.159V3.66992Z" fill="#B07248" fill-opacity="0.6"/>
<path d="M647.002 3.63867H649.641V0.999672H647.002V3.63867Z" fill="#B07248" fill-opacity="0.6"/>
<path d="M637.845 3.60938H640.424V1.03037H637.845V3.60938Z" fill="#B07248" fill-opacity="0.6"/>
<path d="M628.687 3.57812H631.205V1.06013H628.687V3.57812Z" fill="#B07248" fill-opacity="0.6"/>
<path d="M619.531 3.54883H621.988V1.09183H619.531V3.54883Z" fill="#B07248" fill-opacity="0.6"/>
<path d="M610.374 3.51758H612.77V1.12158H610.374V3.51758Z" fill="#B07248" fill-opacity="0.6"/>
<path d="M601.217 3.48828H603.553V1.15228H601.217V3.48828Z" fill="#B07248" fill-opacity="0.6"/>
<path d="M199 18.0195H195.51V14.5295H199V18.0195Z" fill="#B07248" fill-opacity="0.8"/>
<path d="M206.089 17.9805H202.689V14.5805H206.089V17.9805Z" fill="#B07248" fill-opacity="0.8"/>
<path d="M213.159 17.9297H209.859V14.6297H213.159V17.9297Z" fill="#B07248" fill-opacity="0.8"/>
<path d="M220.249 17.8789H217.039V14.6689H220.249V17.8789Z" fill="#B07248" fill-opacity="0.8"/>
<path d="M227.341 17.8398H224.221V14.7198H227.341V17.8398Z" fill="#B07248" fill-opacity="0.8"/>
<path d="M234.421 17.7891H231.391V14.7591H234.421V17.7891Z" fill="#B07248" fill-opacity="0.8"/>
<path d="M241.51 17.7402H238.57V14.8002H241.51V17.7402Z" fill="#B07248" fill-opacity="0.8"/>
<path d="M248.59 17.6992H245.75V14.8592H248.59V17.6992Z" fill="#B07248" fill-opacity="0.8"/>
<path d="M255.67 17.6504H252.92V14.9004H255.67V17.6504Z" fill="#B07248" fill-opacity="0.8"/>
<path d="M262.76 17.6094H260.1V14.9494H262.76V17.6094Z" fill="#B07248" fill-opacity="0.8"/>
<path d="M269.849 17.5586H267.279V14.9886H269.849V17.5586Z" fill="#B07248" fill-opacity="0.8"/>
<path d="M276.929 17.5098H274.449V15.0298H276.929V17.5098Z" fill="#B07248" fill-opacity="0.8"/>
<path d="M284.011 17.4688H281.631V15.0888H284.011V17.4688Z" fill="#B07248" fill-opacity="0.8"/>
<path d="M291.101 17.4199H288.811V15.1299H291.101V17.4199Z" fill="#B07248" fill-opacity="0.8"/>
<path d="M298.18 17.3789H295.98V15.1789H298.18V17.3789Z" fill="#B07248" fill-opacity="0.8"/>
<path d="M305.27 17.3301H303.16V15.2201H305.27V17.3301Z" fill="#B07248" fill-opacity="0.8"/>
<path d="M312.35 17.2793H310.34V15.2693H312.35V17.2793Z" fill="#B07248" fill-opacity="0.8"/>
<path d="M319.43 17.2402H317.51V15.3202H319.43V17.2402Z" fill="#B07248" fill-opacity="0.8"/>
<path d="M326.519 17.1895H324.689V15.3595H326.519V17.1895Z" fill="#B07248" fill-opacity="0.8"/>
<path d="M333.609 17.1504H331.869V15.4104H333.609V17.1504Z" fill="#B07248" fill-opacity="0.8"/>
<path d="M340.689 17.0996H339.039V15.4496H340.689V17.0996Z" fill="#B07248" fill-opacity="0.8"/>
<path d="M347.771 17.0488H346.221V15.4988H347.771V17.0488Z" fill="#B07248" fill-opacity="0.8"/>
<path d="M354.86 17.0098H353.4V15.5498H354.86V17.0098Z" fill="#B07248" fill-opacity="0.8"/>
<path d="M361.94 16.959H360.57V15.589H361.94V16.959Z" fill="#B07248" fill-opacity="0.8"/>
<path d="M369.03 16.9102H367.75V15.6302H369.03V16.9102Z" fill="#B07248" fill-opacity="0.8"/>
<path d="M376.1 16.8691H374.92V15.6891H376.1V16.8691Z" fill="#B07248" fill-opacity="0.8"/>
<path d="M383.19 16.8203H382.1V15.7303H383.19V16.8203Z" fill="#B07248" fill-opacity="0.8"/>
<path d="M193.75 11.0391H190.26V7.54906H193.75V11.0391Z" fill="#B07248" fill-opacity="0.8"/>
<path d="M200.83 11H197.43V7.6H200.83V11Z" fill="#B07248" fill-opacity="0.8"/>
<path d="M207.909 10.9492H204.609V7.64922H207.909V10.9492Z" fill="#B07248" fill-opacity="0.8"/>
<path d="M214.999 10.9004H211.789V7.69039H214.999V10.9004Z" fill="#B07248" fill-opacity="0.8"/>
<path d="M222.081 10.8594H218.961V7.73938H222.081V10.8594Z" fill="#B07248" fill-opacity="0.8"/>
<path d="M229.171 10.8086H226.141V7.77859H229.171V10.8086Z" fill="#B07248" fill-opacity="0.8"/>
<path d="M236.251 10.7695H233.311V7.82953H236.251V10.7695Z" fill="#B07248" fill-opacity="0.8"/>
<path d="M243.33 10.7188H240.49V7.87875H243.33V10.7188Z" fill="#B07248" fill-opacity="0.8"/>
<path d="M250.42 10.6699H247.67V7.91992H250.42V10.6699Z" fill="#B07248" fill-opacity="0.8"/>
<path d="M257.5 10.6289H254.84V7.96891H257.5V10.6289Z" fill="#B07248" fill-opacity="0.8"/>
<path d="M264.59 10.5801H262.02V8.01008H264.59V10.5801Z" fill="#B07248" fill-opacity="0.8"/>
<path d="M271.679 10.5391H269.199V8.05906H271.679V10.5391Z" fill="#B07248" fill-opacity="0.8"/>
<path d="M278.749 10.4902H276.369V8.11024H278.749V10.4902Z" fill="#B07248" fill-opacity="0.8"/>
<path d="M285.841 10.4395H283.551V8.14945H285.841V10.4395Z" fill="#B07248" fill-opacity="0.8"/>
<path d="M292.93 10.4004H290.73V8.20039H292.93V10.4004Z" fill="#B07248" fill-opacity="0.8"/>
<path d="M300.01 10.3496H297.9V8.23961H300.01V10.3496Z" fill="#B07248" fill-opacity="0.8"/>
<path d="M307.09 10.2988H305.08V8.28883H307.09V10.2988Z" fill="#B07248" fill-opacity="0.8"/>
<path d="M314.18 10.2598H312.26V8.33977H314.18V10.2598Z" fill="#B07248" fill-opacity="0.8"/>
<path d="M321.26 10.209H319.43V8.37898H321.26V10.209Z" fill="#B07248" fill-opacity="0.8"/>
<path d="M328.349 10.1699H326.609V8.42992H328.349V10.1699Z" fill="#B07248" fill-opacity="0.8"/>
<path d="M335.439 10.1191H333.789V8.46914H335.439V10.1191Z" fill="#B07248" fill-opacity="0.8"/>
<path d="M342.511 10.0703H340.961V8.52031H342.511V10.0703Z" fill="#B07248" fill-opacity="0.8"/>
<path d="M349.601 10.0293H348.141V8.5693H349.601V10.0293Z" fill="#B07248" fill-opacity="0.8"/>
<path d="M356.69 9.98047H355.32V8.61047H356.69V9.98047Z" fill="#B07248" fill-opacity="0.8"/>
<path d="M363.77 9.93945H362.49V8.65945H363.77V9.93945Z" fill="#B07248" fill-opacity="0.8"/>
<path d="M370.85 9.88867H369.67V8.70867H370.85V9.88867Z" fill="#B07248" fill-opacity="0.8"/>
<path d="M377.94 9.83984H376.85V8.74984H377.94V9.83984Z" fill="#B07248" fill-opacity="0.8"/>
<path d="M385.02 9.79883H384.02V8.79883H385.02V9.79883Z" fill="#B07248" fill-opacity="0.8"/>
<path d="M188.49 4.05859H185V0.568594H188.49V4.05859Z" fill="#B07248" fill-opacity="0.8"/>
<path d="M195.58 4.01953H192.18V0.619532H195.58V4.01953Z" fill="#B07248" fill-opacity="0.8"/>
<path d="M202.65 3.96875H199.35V0.668751H202.65V3.96875Z" fill="#B07248" fill-opacity="0.8"/>
<path d="M209.739 3.92969H206.529V0.719687H209.739V3.92969Z" fill="#B07248" fill-opacity="0.8"/>
<path d="M216.831 3.87891H213.711V0.758907H216.831V3.87891Z" fill="#B07248" fill-opacity="0.8"/>
<path d="M223.911 3.83008H220.881V0.800077H223.911V3.83008Z" fill="#B07248" fill-opacity="0.8"/>
<path d="M231.001 3.78906H228.061V0.849062H231.001V3.78906Z" fill="#B07248" fill-opacity="0.8"/>
<path d="M238.08 3.74023H235.24V0.900234H238.08V3.74023Z" fill="#B07248" fill-opacity="0.8"/>
<path d="M245.16 3.69922H242.41V0.949219H245.16V3.69922Z" fill="#B07248" fill-opacity="0.8"/>
<path d="M252.25 3.65039H249.59V0.990391H252.25V3.65039Z" fill="#B07248" fill-opacity="0.8"/>
<path d="M259.34 3.59961H256.77V1.02961H259.34V3.59961Z" fill="#B07248" fill-opacity="0.8"/>
<path d="M266.419 3.55859H263.939V1.07859H266.419V3.55859Z" fill="#B07248" fill-opacity="0.8"/>
<path d="M273.499 3.50977H271.119V1.12976H273.499V3.50977Z" fill="#B07248" fill-opacity="0.8"/>
<path d="M280.591 3.45898H278.301V1.16899H280.591V3.45898Z" fill="#B07248" fill-opacity="0.8"/>
<path d="M287.671 3.41992H285.471V1.21992H287.671V3.41992Z" fill="#B07248" fill-opacity="0.8"/>
<path d="M294.76 3.36914H292.65V1.25914H294.76V3.36914Z" fill="#B07248" fill-opacity="0.8"/>
<path d="M301.84 3.33008H299.83V1.32008H301.84V3.33008Z" fill="#B07248" fill-opacity="0.8"/>
<path d="M308.92 3.2793H307V1.3593H308.92V3.2793Z" fill="#B07248" fill-opacity="0.8"/>
<path d="M316.01 3.23047H314.18V1.40047H316.01V3.23047Z" fill="#B07248" fill-opacity="0.8"/>
<path d="M323.09 3.18945H321.35V1.44945H323.09V3.18945Z" fill="#B07248" fill-opacity="0.8"/>
<path d="M330.179 3.13867H328.529V1.48867H330.179V3.13867Z" fill="#B07248" fill-opacity="0.8"/>
<path d="M337.261 3.09961H335.711V1.54961H337.261V3.09961Z" fill="#B07248" fill-opacity="0.8"/>
<path d="M344.341 3.04883H342.881V1.58883H344.341V3.04883Z" fill="#B07248" fill-opacity="0.8"/>
<path d="M351.431 3H350.061V1.63H351.431V3Z" fill="#B07248" fill-opacity="0.8"/>
<path d="M358.52 2.95898H357.24V1.67899H358.52V2.95898Z" fill="#B07248" fill-opacity="0.8"/>
<path d="M365.59 2.91016H364.41V1.73016H365.59V2.91016Z" fill="#B07248" fill-opacity="0.8"/>
<path d="M372.68 2.86914H371.59V1.77914H372.68V2.86914Z" fill="#B07248" fill-opacity="0.8"/>
<path d="M379.77 2.82031H378.77V1.82031H379.77V2.82031Z" fill="#B07248" fill-opacity="0.8"/>
<path d="M580 18.0195H583.49V14.5295H580V18.0195Z" fill="#B07248" fill-opacity="0.8"/>
<path d="M572.911 17.9805H576.311V14.5805H572.911V17.9805Z" fill="#B07248" fill-opacity="0.8"/>
<path d="M565.841 17.9297H569.141V14.6297H565.841V17.9297Z" fill="#B07248" fill-opacity="0.8"/>
<path d="M558.751 17.8789H561.961V14.6689H558.751V17.8789Z" fill="#B07248" fill-opacity="0.8"/>
<path d="M551.659 17.8398H554.779V14.7198H551.659V17.8398Z" fill="#B07248" fill-opacity="0.8"/>
<path d="M544.579 17.7891H547.609V14.7591H544.579V17.7891Z" fill="#B07248" fill-opacity="0.8"/>
<path d="M537.49 17.7402H540.43V14.8002H537.49V17.7402Z" fill="#B07248" fill-opacity="0.8"/>
<path d="M530.41 17.6992H533.25V14.8592H530.41V17.6992Z" fill="#B07248" fill-opacity="0.8"/>
<path d="M523.33 17.6504H526.08V14.9004H523.33V17.6504Z" fill="#B07248" fill-opacity="0.8"/>
<path d="M516.24 17.6094H518.9V14.9494H516.24V17.6094Z" fill="#B07248" fill-opacity="0.8"/>
<path d="M509.151 17.5586H511.721V14.9886H509.151V17.5586Z" fill="#B07248" fill-opacity="0.8"/>
<path d="M502.071 17.5098H504.551V15.0298H502.071V17.5098Z" fill="#B07248" fill-opacity="0.8"/>
<path d="M494.989 17.4688H497.369V15.0888H494.989V17.4688Z" fill="#B07248" fill-opacity="0.8"/>
<path d="M487.899 17.4199H490.189V15.1299H487.899V17.4199Z" fill="#B07248" fill-opacity="0.8"/>
<path d="M480.82 17.3789H483.02V15.1789H480.82V17.3789Z" fill="#B07248" fill-opacity="0.8"/>
<path d="M473.73 17.3301H475.84V15.2201H473.73V17.3301Z" fill="#B07248" fill-opacity="0.8"/>
<path d="M466.65 17.2793H468.66V15.2693H466.65V17.2793Z" fill="#B07248" fill-opacity="0.8"/>
<path d="M459.57 17.2402H461.49V15.3202H459.57V17.2402Z" fill="#B07248" fill-opacity="0.8"/>
<path d="M452.481 17.1895H454.311V15.3595H452.481V17.1895Z" fill="#B07248" fill-opacity="0.8"/>
<path d="M445.391 17.1504H447.131V15.4104H445.391V17.1504Z" fill="#B07248" fill-opacity="0.8"/>
<path d="M438.311 17.0996H439.961V15.4496H438.311V17.0996Z" fill="#B07248" fill-opacity="0.8"/>
<path d="M431.229 17.0488H432.779V15.4988H431.229V17.0488Z" fill="#B07248" fill-opacity="0.8"/>
<path d="M424.14 17.0098H425.6V15.5498H424.14V17.0098Z" fill="#B07248" fill-opacity="0.8"/>
<path d="M417.06 16.959H418.43V15.589H417.06V16.959Z" fill="#B07248" fill-opacity="0.8"/>
<path d="M409.97 16.9102H411.25V15.6302H409.97V16.9102Z" fill="#B07248" fill-opacity="0.8"/>
<path d="M402.9 16.8691H404.08V15.6891H402.9V16.8691Z" fill="#B07248" fill-opacity="0.8"/>
<path d="M395.81 16.8203H396.9V15.7303H395.81V16.8203Z" fill="#B07248" fill-opacity="0.8"/>
<path d="M388.721 16.7793H389.721V15.7793H388.721V16.7793Z" fill="#B07248" fill-opacity="0.8"/>
<path d="M585.25 11.0391H588.74V7.54906H585.25V11.0391Z" fill="#B07248" fill-opacity="0.8"/>
<path d="M578.17 11H581.57V7.6H578.17V11Z" fill="#B07248" fill-opacity="0.8"/>
<path d="M571.091 10.9492H574.391V7.64922H571.091V10.9492Z" fill="#B07248" fill-opacity="0.8"/>
<path d="M564.001 10.9004H567.211V7.69039H564.001V10.9004Z" fill="#B07248" fill-opacity="0.8"/>
<path d="M556.919 10.8594H560.039V7.73938H556.919V10.8594Z" fill="#B07248" fill-opacity="0.8"/>
<path d="M549.829 10.8086H552.859V7.77859H549.829V10.8086Z" fill="#B07248" fill-opacity="0.8"/>
<path d="M542.749 10.7695H545.689V7.82953H542.749V10.7695Z" fill="#B07248" fill-opacity="0.8"/>
<path d="M535.67 10.7188H538.51V7.87875H535.67V10.7188Z" fill="#B07248" fill-opacity="0.8"/>
<path d="M528.58 10.6699H531.33V7.91992H528.58V10.6699Z" fill="#B07248" fill-opacity="0.8"/>
<path d="M521.5 10.6289H524.16V7.96891H521.5V10.6289Z" fill="#B07248" fill-opacity="0.8"/>
<path d="M514.41 10.5801H516.98V8.01008H514.41V10.5801Z" fill="#B07248" fill-opacity="0.8"/>
<path d="M507.321 10.5391H509.801V8.05906H507.321V10.5391Z" fill="#B07248" fill-opacity="0.8"/>
<path d="M500.251 10.4902H502.631V8.11024H500.251V10.4902Z" fill="#B07248" fill-opacity="0.8"/>
<path d="M493.159 10.4395H495.449V8.14945H493.159V10.4395Z" fill="#B07248" fill-opacity="0.8"/>
<path d="M486.07 10.4004H488.27V8.20039H486.07V10.4004Z" fill="#B07248" fill-opacity="0.8"/>
<path d="M478.99 10.3496H481.1V8.23961H478.99V10.3496Z" fill="#B07248" fill-opacity="0.8"/>
<path d="M471.91 10.2988H473.92V8.28883H471.91V10.2988Z" fill="#B07248" fill-opacity="0.8"/>
<path d="M464.82 10.2598H466.74V8.33977H464.82V10.2598Z" fill="#B07248" fill-opacity="0.8"/>
<path d="M457.74 10.209H459.57V8.37898H457.74V10.209Z" fill="#B07248" fill-opacity="0.8"/>
<path d="M450.651 10.1699H452.391V8.42992H450.651V10.1699Z" fill="#B07248" fill-opacity="0.8"/>
<path d="M443.561 10.1191H445.211V8.46914H443.561V10.1191Z" fill="#B07248" fill-opacity="0.8"/>
<path d="M436.489 10.0703H438.039V8.52031H436.489V10.0703Z" fill="#B07248" fill-opacity="0.8"/>
<path d="M429.399 10.0293H430.859V8.5693H429.399V10.0293Z" fill="#B07248" fill-opacity="0.8"/>
<path d="M422.31 9.98047H423.68V8.61047H422.31V9.98047Z" fill="#B07248" fill-opacity="0.8"/>
<path d="M415.23 9.93945H416.51V8.65945H415.23V9.93945Z" fill="#B07248" fill-opacity="0.8"/>
<path d="M408.15 9.88867H409.33V8.70867H408.15V9.88867Z" fill="#B07248" fill-opacity="0.8"/>
<path d="M401.06 9.83984H402.15V8.74984H401.06V9.83984Z" fill="#B07248" fill-opacity="0.8"/>
<path d="M393.98 9.79883H394.98V8.79883H393.98V9.79883Z" fill="#B07248" fill-opacity="0.8"/>
<path d="M590.51 4.05859H594V0.568594H590.51V4.05859Z" fill="#B07248" fill-opacity="0.8"/>
<path d="M583.42 4.01953H586.82V0.619532H583.42V4.01953Z" fill="#B07248" fill-opacity="0.8"/>
<path d="M576.35 3.96875H579.65V0.668751H576.35V3.96875Z" fill="#B07248" fill-opacity="0.8"/>
<path d="M569.261 3.92969H572.471V0.719687H569.261V3.92969Z" fill="#B07248" fill-opacity="0.8"/>
<path d="M562.169 3.87891H565.289V0.758907H562.169V3.87891Z" fill="#B07248" fill-opacity="0.8"/>
<path d="M555.089 3.83008H558.119V0.800077H555.089V3.83008Z" fill="#B07248" fill-opacity="0.8"/>
<path d="M547.999 3.78906H550.939V0.849062H547.999V3.78906Z" fill="#B07248" fill-opacity="0.8"/>
<path d="M540.92 3.74023H543.76V0.900234H540.92V3.74023Z" fill="#B07248" fill-opacity="0.8"/>
<path d="M533.84 3.69922H536.59V0.949219H533.84V3.69922Z" fill="#B07248" fill-opacity="0.8"/>
<path d="M526.75 3.65039H529.41V0.990391H526.75V3.65039Z" fill="#B07248" fill-opacity="0.8"/>
<path d="M519.66 3.59961H522.23V1.02961H519.66V3.59961Z" fill="#B07248" fill-opacity="0.8"/>
<path d="M512.581 3.55859H515.061V1.07859H512.581V3.55859Z" fill="#B07248" fill-opacity="0.8"/>
<path d="M505.501 3.50977H507.881V1.12976H505.501V3.50977Z" fill="#B07248" fill-opacity="0.8"/>
<path d="M498.409 3.45898H500.699V1.16899H498.409V3.45898Z" fill="#B07248" fill-opacity="0.8"/>
<path d="M491.329 3.41992H493.529V1.21992H491.329V3.41992Z" fill="#B07248" fill-opacity="0.8"/>
<path d="M484.24 3.36914H486.35V1.25914H484.24V3.36914Z" fill="#B07248" fill-opacity="0.8"/>
<path d="M477.16 3.33008H479.17V1.32008H477.16V3.33008Z" fill="#B07248" fill-opacity="0.8"/>
<path d="M470.08 3.2793H472V1.3593H470.08V3.2793Z" fill="#B07248" fill-opacity="0.8"/>
<path d="M462.99 3.23047H464.82V1.40047H462.99V3.23047Z" fill="#B07248" fill-opacity="0.8"/>
<path d="M455.91 3.18945H457.65V1.44945H455.91V3.18945Z" fill="#B07248" fill-opacity="0.8"/>
<path d="M448.821 3.13867H450.471V1.48867H448.821V3.13867Z" fill="#B07248" fill-opacity="0.8"/>
<path d="M441.739 3.09961H443.289V1.54961H441.739V3.09961Z" fill="#B07248" fill-opacity="0.8"/>
<path d="M434.659 3.04883H436.119V1.58883H434.659V3.04883Z" fill="#B07248" fill-opacity="0.8"/>
<path d="M427.569 3H428.939V1.63H427.569V3Z" fill="#B07248" fill-opacity="0.8"/>
<path d="M420.48 2.95898H421.76V1.67899H420.48V2.95898Z" fill="#B07248" fill-opacity="0.8"/>
<path d="M413.41 2.91016H414.59V1.73016H413.41V2.91016Z" fill="#B07248" fill-opacity="0.8"/>
<path d="M406.32 2.86914H407.41V1.77914H406.32V2.86914Z" fill="#B07248" fill-opacity="0.8"/>
<path d="M399.23 2.82031H400.23V1.82031H399.23V2.82031Z" fill="#B07248" fill-opacity="0.8"/>
</svg>
