<svg width="12" height="12" viewBox="0 0 12 12" fill="none" xmlns="http://www.w3.org/2000/svg">
<path d="M0.660156 0V12L10.8506 6.0033L0.660156 0Z" fill="#3E3E3E"/>
<path d="M0.660156 1.2417V10.7585L8.74381 6.00339L0.660156 1.2417Z" fill="url(#paint0_linear_1081_58553)"/>
<path d="M0.660156 1.89551V10.1046L7.62769 6.00338L0.660156 1.89551Z" fill="url(#paint1_linear_1081_58553)"/>
<defs>
<linearGradient id="paint0_linear_1081_58553" x1="8.73721" y1="5.99679" x2="0.660156" y2="5.99679" gradientUnits="userSpaceOnUse">
<stop stop-color="#12B9FF"/>
<stop offset="1" stop-color="#3E3E3E"/>
</linearGradient>
<linearGradient id="paint1_linear_1081_58553" x1="0.660156" y1="5.99677" x2="7.62108" y2="5.99677" gradientUnits="userSpaceOnUse">
<stop stop-color="#12B9FF" stop-opacity="0"/>
<stop offset="1" stop-color="#3E3E3E"/>
</linearGradient>
</defs>
</svg>
